{
  "head": {
    "socials": [
      {
        "class": "bx bxl-twitter",
        "href": "twitter"
      },
      {
        "class": "bx bxl-instagram-alt",
        "href": "instagram"
      },
      {
        "class": "bx bxl-discord-alt",
        "href": "discord"
      }
    ],
    "cards": [
      {
        "img": "images/1.jpg",
        "title": "Image ONE",
        "text": "1 Look At Another Perfect NFT and buy it right now",
        "href": "#1"
      },
      {
        "img": "images/2.jpg",
        "title": "Image two",
        "text": "2 Look At Another Perfect NFT and buy it right now",
        "href": "#1"
      },
      {
        "img": "images/3.jpg",
        "title": "Image tree",
        "text": "3 Look At Another Perfect NFT and buy it right now",
        "href": "#1"
      },
      {
        "img": "images/4.jpg",
        "title": "Image four",
        "text": "4 Look At Another Perfect NFT and buy it right now",
        "href": "#1"
      }
    ],
    "description": "A Collection of unique and diverse women, while incorporating artistic inspiration from the Doodles. \n\n World of Woodles are randomly generated digital collectibles of various rarity living on the ethereum blockchain collection of 10,000 NFT’s (non-fungible tokens) that are made up of hundreds of unique and exciting traits."
  },
  "faq": {
    "text": "A community built around expression, diversity, and inclusivity while paying respectful homage to infamous NFT collections, World of Women and Doodles.\n\nAdding its own unique derivative twist, hand drawn World of Woodles include common, uncommon, rare, and infamous traits sought after by NFT Collectors all around the world. Owning a World Of Woodles grants you access to the World of Woodle community where members can connect and network with people from all around the world.",
    "aq": [
      {
        "question": "How I could buy it",
        "answer": "Larva Doods are a collection of 8,888 Doods. Inspired by the smash hit collection Larva Lads and the loveable style of Doodles – these Doods are here to stay and ready to party! Join the club then head on over to our discord to vibe out with the other cool Doods. First 1,000 Doods free Then 0.0088 ETH each"
      },
      {
        "question": "Another Interesting Question",
        "answer": "Larva Doods are a collection of 8,888 Doods. Inspired by the smash hit collection Larva Lads and the loveable style of Doodles – these Doods are here to stay and ready to party! Join the club then head on over to our discord to vibe out with the other cool Doods. First 1,000 Doods free Then 0.0088 ETH each"
      }
    ]
  },
  "gallery": [
    {
      "img": "images/1.jpg",
      "title": "Image 1",
      "text": "1 Look At Another Perfect NFT and buy it right now",
      "href": "#1"
    },
    {
      "img": "images/2.jpg",
      "title": "Image 2",
      "text": "2 Look At Another Perfect NFT and buy it right now",
      "href": "#1"
    },
    {
      "img": "images/3.jpg",
      "title": "Image 3",
      "text": "3 Look At Another Perfect NFT and buy it right now",
      "href": "#1"
    },
    {
      "img": "images/4.jpg",
      "title": "Image 4",
      "text": "4 Look At Another Perfect NFT and buy it right now",
      "href": "#1"
    },
    {
      "img": "images/5.jpg",
      "title": "Image 5",
      "text": "5 Look At Another Perfect NFT and buy it right now",
      "href": "#1"
    },
    {
      "img": "images/6.jpg",
      "title": "Image 6",
      "text": "6 Look At Another Perfect NFT and buy it right now",
      "href": "#1"
    },
    {
      "img": "images/7.jpg",
      "title": "Image 7",
      "text": "7 Look At Another Perfect NFT and buy it right now",
      "href": "#1"
    },
    {
      "img": "images/8.jpg",
      "title": "Image 8",
      "text": "8 Look At Another Perfect NFT and buy it right now",
      "href": "#1"
    },
    {
      "img": "images/9.jpg",
      "title": "Image 9",
      "text": "9 Look At Another Perfect NFT and buy it right now",
      "href": "#1"
    }
  ]
}
